…
``` r
eleccion_2021_primeravuelta <- datos_comunas1_2021_agrupado %>%
  rename(comuna = Comuna) %>%
  mutate(comuna = str_to_lower(comuna))

eleccion_2021_primeravuelta
```

```
## # A tibble: 52 × 5
## # Groups:   Distrito [7]
##    Distrito    comuna      Total_Inscritos Total_Votacion Participacion_Porcen…¹
##    <chr>       <chr>                 <dbl>          <dbl>                  <dbl>
##  1 Distrito 10 la granja            102187          45371                   44.4
##  2 Distrito 10 macul                100045          54600                   54.6
##  3 Distrito 10 providencia          170892          96543                   56.5
##  4 Distrito 10 san joaquin           80763          39445                   48.8
##  5 Distrito 10 santiago             339067         136398                   40.2
##  6 Distrito 10 ñuñoa                198985         123031                   61.8
##  7 Distrito 11 la reina              90939          56792                   62.5
##  8 Distrito 11 las condes           271386         171671                   63.3
##  9 Distrito 11 lo barnech…           84259          55042                   65.3
## 10 Distrito 11 peñalolen            190640          95956                   50.3
## # ℹ 42 more rows
## # ℹ abbreviated name: ¹​Participacion_Porcentaje
```
…
``` r
eleccion_2021_segundavuelta <- datos_comunas2_2021_agrupado %>%
  rename(comuna = Comuna) %>%
  mutate(comuna = str_to_lower(comuna))
eleccion_2021_segundavuelta
```

```
## # A tibble: 52 × 5
## # Groups:   Distrito [7]
##    Distrito    comuna      Total_Inscritos Total_Votacion Participacion_Porcen…¹
##    <chr>       <chr>                 <dbl>          <dbl>                  <dbl>
##  1 Distrito 10 la granja            102187          55913                   54.7
##  2 Distrito 10 macul                100045          64016                   64  
##  3 Distrito 10 providencia          170892         104693                   61.3
##  4 Distrito 10 san joaquin           80763          48040                   59.5
##  5 Distrito 10 santiago             339067         158676                   46.8
##  6 Distrito 10 ñuñoa                198985         139003                   69.9
##  7 Distrito 11 la reina              90939          63597                   69.9
##  8 Distrito 11 las condes           271386         184227                   67.9
##  9 Distrito 11 lo barnech…           84259          59439                   70.5
## 10 Distrito 11 peñalolen            190640         115888                   60.8
## # ℹ 42 more rows
## # ℹ abbreviated name: ¹​Participacion_Porcentaje
```
…
```
## `mutate_all()` ignored the following grouping variables:
## • Column `folio`
## ℹ Use `mutate_at(df, vars(-group_cols()), myoperation)` to silence the message.
```

``` r
casen_2021_rm_actualizada                                
```

```
## # A tibble: 38,674 × 17
## # Groups:   folio [13,202]
##      folio id_persona region   nse  sexo  edad   e6a  ytoth ytotcorh   dau dautr
##      <dbl>      <dbl>  <dbl> <dbl> <dbl> <dbl> <dbl>  <dbl>    <dbl> <dbl> <dbl>
##  1  1.00e8          1     13     2     2    54    11 2.95e6  2945500     8     7
##  2  1.00e8          2     13     2     2    28    11 2.95e6  2945500     8     7
##  3  1.00e8          3     13     2     2    27    13 2.95e6  2945500     8     7
##  4  1.00e8          4     13     2     2    19    11 2.95e6  2945500     8     7
##  5  1.00e8          5     13     2     1    56    11 2.95e6  2945500     8     7
##  6  1.00e8          1     13     2     1    81     5 6.42e5   963997     4     3
##  7  1.00e8          2     13     2     1    50     9 6.42e5   963997     4     3
##  8  1.00e8          1     13     2     2    59    11 4.15e5   415310     3     3
##  9  1.00e8          2     13     2     1    60     9 4.15e5   415310     3     3
## 10  1.00e8          1     13     2     2    52    11 7.15e5   714750     9     8
## # ℹ 38,664 more rows
## # ℹ 6 more variables: educ <dbl>, expr <dbl>, numper <dbl>, comuna <dbl>,
## #   expp <dbl>, expc <dbl>
```
…
# Manipulacion CASEN promedio de DECILES por comuna

La variable DAU es el decil autonoma nacional para comparar el nivel socioeconomico de las personas. Por temas de anális observamos la región metropolitana. Pero puede ser llevado acabo a un nivel mayor a nivel país.


``` r
promedio_dau_comuna <- casen_2021 %>%
  group_by(comuna) %>%    # Agrupar por comuna
  summarise(promedio_dau = round(mean(dau, na.rm = TRUE), 1))  # Calcular promedio de 'dau' redondeado a 1 decimal

promedio_dau_comuna
```

```
## # A tibble: 52 × 2
##    comuna          promedio_dau
##    <chr>                  <dbl>
##  1 alhue                    4.7
##  2 buin                     4.7
##  3 calera de tango          4.5
##  4 cerrillos                5  
##  5 cerro navia              4.5
##  6 colina                   5  
##  7 conchali                 4.5
##  8 curacavi                 4.3
##  9 el bosque                4.3
## 10 el monte                 4  
## # ℹ 42 more rows
```
…
``` r
# Realizar el cruce de bases por 'comuna'

datos_cruzados_primeravuelta <- eleccion_2021_primeravuelta %>%
  left_join(promedio_dau_comuna, by = "comuna")

datos_cruzados_segundavuelta <- eleccion_2021_segundavuelta %>%
  left_join(promedio_dau_comuna, by = "comuna")

datos_cruzados_primeravuelta
```

```
## # A tibble: 52 × 6
## # Groups:   Distrito [7]
##    Distrito    comuna      Total_Inscritos Total_Votacion Participacion_Porcen…¹
##    <chr>       <chr>       <chr>           <chr>          <chr>                 
##  1 Distrito 10 la granja   102187          45371          44.4                  
##  2 Distrito 10 macul       100045          54600          54.6                  
##  3 Distrito 10 providencia 170892          96543          56.5                  
##  4 Distrito 10 san joaquin 80763           39445          48.8                  
##  5 Distrito 10 santiago    339067          136398         40.2                  
##  6 Distrito 10 nunoa       198985          123031         61.8                  
##  7 Distrito 11 la reina    90939           56792          62.5                  
##  8 Distrito 11 las condes  271386          171671         63.3                  
##  9 Distrito 11 lo barnech… 84259           55042          65.3                  
## 10 Distrito 11 penalolen   190640          95956          50.3                  
## # ℹ 42 more rows
## # ℹ abbreviated name: ¹​Participacion_Porcentaje
## # ℹ 1 more variable: promedio_dau <dbl>
```

``` r
datos_cruzados_segundavuelta
```

```
## # A tibble: 52 × 6
## # Groups:   Distrito [7]
##    Distrito    comuna      Total_Inscritos Total_Votacion Participacion_Porcen…¹
##    <chr>       <chr>       <chr>           <chr>          <chr>                 
##  1 Distrito 10 la granja   102187          55913          54.7                  
##  2 Distrito 10 macul       100045          64016          64                    
##  3 Distrito 10 providencia 170892          104693         61.3                  
##  4 Distrito 10 san joaquin 80763           48040          59.5                  
##  5 Distrito 10 santiago    339067          158676         46.8                  
##  6 Distrito 10 nunoa       198985          139003         69.9                  
##  7 Distrito 11 la reina    90939           63597          69.9                  
##  8 Distrito 11 las condes  271386          184227         67.9                  
##  9 Distrito 11 lo barnech… 84259           59439          70.5                  
## 10 Distrito 11 penalolen   190640          115888         60.8                  
## # ℹ 42 more rows
## # ℹ abbreviated name: ¹​Participacion_Porcentaje
## # ℹ 1 more variable: promedio_dau <dbl>
```
…
